…
``` r
r2_bootstrap =
  weather_df |>
  modelr::bootstrap(n = 5000) |>
  mutate(
    models = map(strap, \(weather_df) lm(tmax ~ tmin + prcp, data = weather_df)),
    results = map(models, broom::glance),
    sample_number = row_number()) |>
  unnest(results) |>
  select(sample_number, r.squared)

r2_bootstrap
```

    ## # A tibble: 5,000 × 2
    ##    sample_number r.squared
    ##            <int>     <dbl>
    ##  1             1     0.898
    ##  2             2     0.928
    ##  3             3     0.925
    ##  4             4     0.931
    ##  5             5     0.915
    ##  6             6     0.918
    ##  7             7     0.922
    ##  8             8     0.910
    ##  9             9     0.910
    ## 10            10     0.939
    ## # ℹ 4,990 more rows
…
log_bootstrap
```

    ## # A tibble: 5,000 × 4
    ##    sample_number  tmin      prcp    log
    ##            <int> <dbl>     <dbl>  <dbl>
    ##  1             1 0.998  0.00236   -6.05
    ##  2             2 0.988  0.00103   -6.89
    ##  3             3 1.02  -0.00200  NaN   
    ##  4             4 1.02  -0.00681  NaN   
    ##  5             5 1.02   0.000945  -6.95
    ##  6             6 0.997  0.00776   -4.86
    ##  7             7 1.01   0.000538  -7.52
    ##  8             8 1.02  -0.00110  NaN   
    ##  9             9 1.04  -0.00472  NaN   
    ## 10            10 1.01   0.000396  -7.83
    ## # ℹ 4,990 more rows
…
